module bitbucket.org/spreadaiteam/protoc-gen-spread-micro

go 1.13

require (
	github.com/golang/protobuf v1.5.0
	github.com/micro/go-micro/v2 v2.9.1
	google.golang.org/genproto v0.0.0-20191216164720-4f79533eabd1
	google.golang.org/protobuf v1.27.1
)
